{ 
    "influxdb_cfg":
    {
        "username": "",
        "database": "dbName",
        "host": "127.0.0.1",
        "port": 8086
    },
    "environments" : [
	{ 
	    "measurement" : "measurment_name",
	    "dcsList" : [
		{
		    "key": "temperature",
		    "data_column_name": "1_temperature",
		    "unit": "[C]",
		    "description": "Room Temperature [C]",
		    "setting_column_name": "1_temperature_setting"
		},{
		    "key": "temperature",
		    "data_column_name": "2_temperature",
		    "unit": "[C]",
		    "description": "Board Temperature [C]",
		    "setting_column_name": "2_temperature_settingt"
		}
	    ]
	},{
	    "measurement" : "measurement2_name", 
	    "dcsList" : [
		{
		    "key": "vddd_voltage",
		    "data_column_name": "1_LV_V",
		    "unit": "V",
		    "description": "VDDD Voltage [V]",
		    "setting_column_name": "1_LV_V_setting"
		}
	    ]
	}
    ]
}
